module lanc

go 1.21

toolchain go1.21.4

require (
	github.com/gofiber/fiber/v2 v2.52.5
	github.com/rs/xid v1.6.0
	github.com/skip2/go-qrcode v0.0.0-20200617195104-da1b6568686e
)

require (
	github.com/andybalholm/brotli v1.1.0 // indirect
	github.com/google/uuid v1.6.0 // indirect
	github.com/klauspost/compress v1.17.9 // indirect
	github.com/mattn/go-colorable v0.1.13 // indirect
	github.com/mattn/go-isatty v0.0.20 // indirect
	github.com/mattn/go-runewidth v0.0.16 // indirect
	github.com/rivo/uniseg v0.4.7 // indirect
	github.com/valyala/bytebufferpool v1.0.0 // indirect
	github.com/valyala/fasthttp v1.55.0 // indirect
	github.com/valyala/tcplisten v1.0.0 // indirect
	golang.org/x/sys v0.24.0 // indirect
)
